[gd_scene load_steps=5 format=2]

[ext_resource path="res://my_game/objects/unit/unit.gd" type="Script" id=1]
[ext_resource path="res://my_game/data/my_data_resource.gd" type="Script" id=2]

[sub_resource type="Resource" id=2]

script = ExtResource( 2 )
_sections_unfolded = [ "Resource" ]
some_var = null

[sub_resource type="RectangleShape2D" id=1]

custom_solver_bias = 0.0
extents = Vector2( 10, 10 )

[node name="Unit" type="KinematicBody2D" index="0"]

input_pickable = false
collision_layer = 1
collision_mask = 1
collision/safe_margin = 0.08
script = ExtResource( 1 )
world = null
speed = null
my_class = SubResource( 2 )

[node name="Sprite" type="Sprite" parent="." index="0"]

[node name="CollisionShape2D" type="CollisionShape2D" parent="." index="1"]

shape = SubResource( 1 )


